Design Group-Specific Primers • DECIPHER
…
Not that this command designs individual primers and a different
command is required to design pairs of forward and reverse primers (see
below). Let’s examine the first primer that is available, out of 499
potential target sites. We can see that only one permutation was
required to cover 100% of the species in this target site. However, the
score of this primer is relatively bad (negative) because it has a high
efficiency of amplification predicted with other groups (i.e.,
species).

primers |> dplyr::as_tibble()

## # A tibble: 499 × 17
##    identifier  start_forward start_reverse start_aligned_forward
##    <I<chr>>         <I<int>>      <I<dbl>>              <I<int>>
##  1 avermitilis            11            17                     1
##  2 avermitilis            11            19                     2
##  3 avermitilis            11            19                     3
##  4 avermitilis            12            20                     4
##  5 avermitilis            12            21                     5
##  6 avermitilis            13            22                     6
##  7 avermitilis            14            23                     7
##  8 avermitilis            14            24                     8
##  9 avermitilis            16            25                     9
## 10 avermitilis            16            26                    10
## # ℹ 489 more rows
## # ℹ 13 more variables: start_aligned_reverse <I<int>>,
## #   permutations_forward <I<dbl>>, permutations_reverse <I<dbl>>,
## #   score_forward <I<dbl>>, score_reverse <I<dbl>>, forward_primer <chr[,4]>,
## #   reverse_primer <chr[,4]>, forward_efficiency <dbl[,4]>,
## #   reverse_efficiency <dbl[,4]>, forward_coverage <dbl[,4]>,
## #   reverse_coverage <dbl[,4]>, mismatches_forward <I<chr>>, …
…
