How to design species-specific primers • DECIPHER
…
为了检查 _Seqs 表格的内容，需要调用 SQL 语句2。

dbGetQuery(dbConn, "select * from _Seqs limit 3")
#>   row_names    sequence   quality
#> 1         1 blob[183 B] blob[0 B]
#> 2         2 blob[196 B] blob[0 B]
#> 3         3 blob[190 B] blob[0 B]

Defining groups of the sequences in database.

desc <- dbGetQuery(dbConn, "select description from Seqs")
desc |> as_tibble()
#> # A tibble: 88 × 1
#>    description                                           
#>    <chr>                                                 
#>  1 "supercont3.1 of Streptomyces albus J1074"            
#>  2 "supercont3.1 of Streptomyces albus J1074"            
#>  3 "supercont1.1 of Streptomyces clavuligerus ATCC 27064"
#>  4 "supercont1.1 of Streptomyces clavuligerus ATCC 27064"
#>  5 "supercont1.1 of Streptomyces clavuligerus ATCC 27064"
#>  6 "supercont1.1 of Streptomyces ghanaensis ATCC 14672"  
#>  7 "supercont1.1 of Streptomyces griseoflavus Tu4000"    
#>  8 "supercont1.1 of Streptomyces lividans TK24 "         
#>  9 "supercont1.1 of Streptomyces lividans TK24 "         
#> 10 "supercont1.1 of Streptomyces lividans TK24 "         
#> # ℹ 78 more rows
…
